{
    "data": [
        {
            "id": "1",
            "type": "retail_stores",
            "links": {
                "self": "/v1/retail_stores/1"
            },
            "attributes": {
                "updated_at": "2017-07-11T08:31:31Z",
                "created_at": "2017-03-20T12:02:21Z",
                "deleted_at": null,
                "archived": false,
                "slug": "Sabalito",
                "canonical_path": "/stores/sabalito",
                "meta_attributes": {},
                "title": "Sabalito",
                "reference": "Sabalito",
                "allow_click_and_collect": true,
                "address": "Sabalito, Coto Brus \n60650\nCR",
                "address_line_1": "Sabalito de Coto Brus",
                "address_line_2": null,
                "address_line_3": null,
                "city": "Coto Brus",
                "state": null,
                "country": "CR",
                "postcode": "SW1A 1AA",
                "description": "...",
                "phone_number": "01234 567 890",
                "mon_opening_time": "09:00",
                "tues_opening_time": "09:00",
                "wed_opening_time": "09:00",
                "thurs_opening_time": "09:00",
                "fri_opening_time": "09:00",
                "sat_opening_time": "09:30",
                "sun_opening_time": "10:00",
                "mon_closing_time": "20:00",
                "tues_closing_time": "20:00",
                "wed_closing_time": "20:00",
                "thurs_closing_time": "20:00",
                "fri_closing_time": "20:00",
                "sat_closing_time": "19:00",
                "sun_closing_time": "18:00",
                "longitude": -82.9124956,
                "latitude": 8.8174614
            }
        },
        {
            "id": "2",
            "type": "retail_stores",
            "links": {
                "self": "/v1/retail_stores/2"
            },
            "attributes": {
                "updated_at": "2017-07-11T08:31:31Z",
                "created_at": "2017-03-20T12:02:21Z",
                "deleted_at": null,
                "archived": false,
                "slug": "Las Brisas",
                "canonical_path": "/stores/lasbrisas",
                "meta_attributes": {},
                "title": "Las Brisas",
                "reference": "lasbrisas",
                "allow_click_and_collect": true,
                "address": "Las Brisas Coto Brus\nSW1A 1AA\nCR",
                "address_line_1": "Coto Brus de Puntarenas",
                "address_line_2": null,
                "address_line_3": null,
                "city": "Las Brisas City",
                "state": null,
                "country": "UK",
                "postcode": "SW1A 1AA",
                "description": "...",
                "phone_number": "01234 567 890",
                "mon_opening_time": "08:00",
                "tues_opening_time": "07:00",
                "wed_opening_time": "06:00",
                "thurs_opening_time": "05:00",
                "fri_opening_time": "04:00",
                "sat_opening_time": "03:00",
                "sun_opening_time": "10:00",
                "mon_closing_time": "21:00",
                "tues_closing_time": "22:00",
                "wed_closing_time": "20:30",
                "thurs_closing_time": "18:00",
                "fri_closing_time": "19:00",
                "sat_closing_time": "19:30",
                "sun_closing_time": "17:00",
                "longitude": -82.9321901,
                "latitude": 8.8630534
            }
        },
        {
            "id": "3",
            "type": "retail_stores",
            "links": {
                "self": "/v1/retail_stores/3"
            },
            "attributes": {
                "updated_at": "2017-07-11T08:31:31Z",
                "created_at": "2017-03-20T12:02:21Z",
                "deleted_at": null,
                "archived": false,
                "slug": "quesada",
                "canonical_path": "/stores/quesada",
                "meta_attributes": {},
                "title": "Ciudad Quesada",
                "reference": "quesada",
                "allow_click_and_collect": true,
                "address": "Ciudad Quesada, San Carlos\nSW1A AAA\nCR",
                "address_line_1": "Frente al Estadio, Ciudad Quesada",
                "address_line_2": null,
                "address_line_3": null,
                "city": "Quesada City",
                "state": null,
                "country": "CR",
                "postcode": "SW1A AAA",
                "description": "...",
                "phone_number": "01234 567 890",
                "mon_opening_time": "09:01",
                "tues_opening_time": "09:20",
                "wed_opening_time": "09:30",
                "thurs_opening_time": "09:40",
                "fri_opening_time": "09:50",
                "sat_opening_time": "09:11",
                "sun_opening_time": "11:00",
                "mon_closing_time": "20:10",
                "tues_closing_time": "20:20",
                "wed_closing_time": "20:30",
                "thurs_closing_time": "20:40",
                "fri_closing_time": "20:50",
                "sat_closing_time": "19:11",
                "sun_closing_time": "18:22",
                "longitude": -84.4263387,
                "latitude": 10.3245077
            }
        },
        {
            "id": "4",
            "type": "retail_stores",
            "links": {
                "self": "/v1/retail_stores/4"
            },
            "attributes": {
                "updated_at": "2017-07-11T08:31:31Z",
                "created_at": "2017-03-20T12:02:21Z",
                "deleted_at": null,
                "archived": false,
                "slug": "cartago",
                "canonical_path": "/stores/cartago",
                "meta_attributes": {},
                "title": "Cartago Centro",
                "reference": "cartago",
                "allow_click_and_collect": true,
                "address": "Cartago Centro\nSW1A 3AA\nCR",
                "address_line_1": "Frente al estadio Fello Meza Ivankovich",
                "address_line_2": null,
                "address_line_3": null,
                "city": "Cartago City",
                "state": null,
                "country": "CR",
                "postcode": "SW1A 3AA",
                "description": "...",
                "phone_number": "01234 567 890",
                "mon_opening_time": "02:00",
                "tues_opening_time": "03:00",
                "wed_opening_time": "04:00",
                "thurs_opening_time": "05:00",
                "fri_opening_time": "06:00",
                "sat_opening_time": "07:00",
                "sun_opening_time": "08:00",
                "mon_closing_time": "16:00",
                "tues_closing_time": "17:00",
                "wed_closing_time": "18:00",
                "thurs_closing_time": "19:00",
                "fri_closing_time": "20:00",
                "sat_closing_time": "21:00",
                "sun_closing_time": "22:00",
                "longitude": -83.921125,
                "latitude": 9.8584593
            }
        },
        {
            "id": "5",
            "type": "retail_stores",
            "links": {
                "self": "/v1/retail_stores/5"
            },
            "attributes": {
                "updated_at": "2017-07-11T08:31:31Z",
                "created_at": "2017-03-20T12:02:21Z",
                "deleted_at": null,
                "archived": false,
                "slug": "sancar",
                "canonical_path": "/stores/sancarleño",
                "meta_attributes": {},
                "title": "El Sancarleño (Sancar)",
                "reference": "sancar",
                "allow_click_and_collect": true,
                "address": "El Sancarleño Club\nSW1A 777\nCR",
                "address_line_1": "Barrio Porvenir Abajo",
                "address_line_2": "Alajuela, San Carlos",
                "address_line_3": null,
                "city": "Quesada City",
                "state": null,
                "country": "CR",
                "postcode": "SW1A 1AA",
                "description": "...",
                "phone_number": "01234 567 890",
                "mon_opening_time": "04:00",
                "tues_opening_time": "05:00",
                "wed_opening_time": "06:00",
                "thurs_opening_time": "07:00",
                "fri_opening_time": "08:00",
                "sat_opening_time": "09:00",
                "sun_opening_time": "10:00",
                "mon_closing_time": "11:00",
                "tues_closing_time": "12:00",
                "wed_closing_time": "13:00",
                "thurs_closing_time": "14:00",
                "fri_closing_time": "15:00",
                "sat_closing_time": "16:00",
                "sun_closing_time": "17:00",
                "longitude": -84.4275663,
                "latitude": 10.3023528
            }
        }
    ],
    "meta": {
        "total_entries": 100,
        "page_count": 10
    },
    "links": {
        "self": "/v1/retail_stores?page%5Bnumber%5D=1&page%5Bsize%5D=1",
        "first": "/v1/retail_stores?page%5Bnumber%5D=1&page%5Bsize%5D=1",
        "next": "/v1/retail_stores?page%5Bnumber%5D=2&page%5Bsize%5D=1",
        "last": "/v1/retail_stores?page%5Bnumber%5D=229&page%5Bsize%5D=1"
    }
}